solid OpenSCAD_Model
  facet normal -1 0 0
    outer loop
      vertex 0 0 0
      vertex 0 3 4
      vertex 0 3 0
    endloop
  endfacet
  facet normal -1 -0 0
    outer loop
      vertex 0 3 4
      vertex 0 0 0
      vertex 0 0 4
    endloop
  endfacet
  facet normal 0 0 1
    outer loop
      vertex 113 3 4
      vertex 111.5 2 4
      vertex 113 0 4
    endloop
  endfacet
  facet normal -0 0 1
    outer loop
      vertex 0 3 4
      vertex 111.5 2 4
      vertex 113 3 4
    endloop
  endfacet
  facet normal 0 0 1
    outer loop
      vertex 0.5 2 4
      vertex 0 3 4
      vertex 0.5 1 4
    endloop
  endfacet
  facet normal 0 0 1
    outer loop
      vertex 111.5 2 4
      vertex 0 3 4
      vertex 0.5 2 4
    endloop
  endfacet
  facet normal -0 0 1
    outer loop
      vertex 111.5 1 4
      vertex 113 0 4
      vertex 111.5 2 4
    endloop
  endfacet
  facet normal 0 0 1
    outer loop
      vertex 0 0 4
      vertex 111.5 1 4
      vertex 0.5 1 4
    endloop
  endfacet
  facet normal 0 0 1
    outer loop
      vertex 111.5 1 4
      vertex 0 0 4
      vertex 113 0 4
    endloop
  endfacet
  facet normal 0 0 1
    outer loop
      vertex 0 0 4
      vertex 0.5 1 4
      vertex 0 3 4
    endloop
  endfacet
  facet normal 1 -0 0
    outer loop
      vertex 113 0 4
      vertex 113 3 0
      vertex 113 3 4
    endloop
  endfacet
  facet normal 1 0 0
    outer loop
      vertex 113 3 0
      vertex 113 0 4
      vertex 113 0 0
    endloop
  endfacet
  facet normal 0 0 -1
    outer loop
      vertex 0 0 0
      vertex 113 3 0
      vertex 113 0 0
    endloop
  endfacet
  facet normal -0 0 -1
    outer loop
      vertex 113 3 0
      vertex 0 0 0
      vertex 0 3 0
    endloop
  endfacet
  facet normal 0 -1 0
    outer loop
      vertex 0 0 0
      vertex 113 0 4
      vertex 0 0 4
    endloop
  endfacet
  facet normal 0 -1 -0
    outer loop
      vertex 113 0 4
      vertex 0 0 0
      vertex 113 0 0
    endloop
  endfacet
  facet normal 0 1 -0
    outer loop
      vertex 113 3 0
      vertex 0 3 4
      vertex 113 3 4
    endloop
  endfacet
  facet normal 0 1 0
    outer loop
      vertex 0 3 4
      vertex 113 3 0
      vertex 0 3 0
    endloop
  endfacet
  facet normal 1 -0 0
    outer loop
      vertex 0.5 1 4
      vertex 0.5 2 1
      vertex 0.5 2 4
    endloop
  endfacet
  facet normal 1 0 0
    outer loop
      vertex 0.5 2 1
      vertex 0.5 1 4
      vertex 0.5 1 1
    endloop
  endfacet
  facet normal -1 0 0
    outer loop
      vertex 111.5 1 1
      vertex 111.5 2 4
      vertex 111.5 2 1
    endloop
  endfacet
  facet normal -1 -0 0
    outer loop
      vertex 111.5 2 4
      vertex 111.5 1 1
      vertex 111.5 1 4
    endloop
  endfacet
  facet normal 0 -1 0
    outer loop
      vertex 0.5 2 1
      vertex 111.5 2 4
      vertex 0.5 2 4
    endloop
  endfacet
  facet normal 0 -1 -0
    outer loop
      vertex 111.5 2 4
      vertex 0.5 2 1
      vertex 111.5 2 1
    endloop
  endfacet
  facet normal -0 0 1
    outer loop
      vertex 0.5 2 1
      vertex 111.5 1 1
      vertex 111.5 2 1
    endloop
  endfacet
  facet normal 0 0 1
    outer loop
      vertex 111.5 1 1
      vertex 0.5 2 1
      vertex 0.5 1 1
    endloop
  endfacet
  facet normal 0 1 -0
    outer loop
      vertex 111.5 1 1
      vertex 0.5 1 4
      vertex 111.5 1 4
    endloop
  endfacet
  facet normal 0 1 0
    outer loop
      vertex 0.5 1 4
      vertex 111.5 1 1
      vertex 0.5 1 1
    endloop
  endfacet
endsolid OpenSCAD_Model
